…
This vignette provides a brief overview on using the `rfema` package to obtain data from the Open FEMA API. The rest of this vignette covers how to install the package, followed by examples on using the package to obtain data for various objectives. 

## Installation
Right now, the best way to install and use the `rfema` package is by installing directly from rOpenSci using `install.packages("rfema", repos = "https://ropensci.r-universe.dev")`. The FEMA API does not require and API key, meaning no further setup steps need be taken to start using the package

## Available Datasets
For those unfamiliar with the data sets available through the FEMA API, a good starting place is to visit the [FEMA API documentation page](https://www.fema.gov/about/openfema/data-sets). However, if you are already familiar with the data and want to quickly reference the data set names or another piece of meta data, using the `fema_data_sets()` function to obtain a tibble of available data sets along with associated meta data is a convenient option.

```r
# store the avaliable data sets as an object in your R environment that can be referenced later
data_sets <- fema_data_sets() 

# view data 
data_sets
#> # A tibble: 37 × 64
#>    identifier  name     title    description      distribution.acces… distribution.fo… distribution.da…
#>    <chr>       <chr>    <chr>    <chr>            <chr>               <chr>            <chr>           
#>  1 openfema-1  PublicA… Public … FEMA provides s… https://www.fema.g… csv              small (10MB - 5…
#>  2 openfema-1  PublicA… Public … FEMA provides s… https://www.fema.g… csv              small (10MB - 5…
#>  3 openfema-26 FemaWeb… FEMA We… This data set c… https://www.fema.g… csv              medium (50MB - …
#>  4 openfema-28 HazardM… Hazard … This dataset co… https://www.fema.g… csv              small (10MB - 5…
#>  5 openfema-36 FemaReg… FEMA Re… Provides the li… https://www.fema.g… csv              tiny (< 10 MB)  
#>  6 openfema-22 Emergen… Emergen… This dataset co… https://www.fema.g… csv              tiny (< 10MB)   
#>  7 openfema-45 HazardM… Hazard … The dataset con… https://www.fema.g… csv              small (10MB - 5…
#>  8 openfema-12 Housing… Housing… This dataset wa… https://www.fema.g… csv              small (10MB - 5…
#>  9 openfema-8  DataSet… OpenFEM… Metadata for th… https://www.fema.g… csv              tiny (< 10MB)   
#> 10 openfema-37 HazardM… Hazard … This dataset co… https://www.fema.g… csv              small (10MB - 5…
#> # … with 27 more rows, and 57 more variables: distribution.accessURL.1 <chr>,
#> #   distribution.format.1 <chr>, distribution.datasetSize.1 <chr>, distribution.accessURL.2 <chr>,
#> #   distribution.format.2 <chr>, distribution.datasetSize.2 <chr>, webService <chr>,
#> #   dataDictionary <chr>, keyword <chr>, modified <chr>, publisher <chr>, contactPoint <chr>,
#> #   mbox <chr>, accessLevel <chr>, landingPage <chr>, temporal <chr>, api <chr>, version <chr>,
#> #   bureauCode <chr>, programCode <chr>, accessLevelComment <chr>, license <chr>, spatial <chr>,
#> #   theme <chr>, dataQuality <chr>, accrualPeriodicity <chr>, language <chr>, …
```

## Example Workflow
Once we know what data set we want to access, or perhaps if we want to know more about what data is available in a given data set, we can use the `fema_data_fields()` function to get a look at the available data fields in a given data set by setting the "data_set" parameter to one of the "name" columns in the data frame returned by the `fema_data_sets()` function.

```r
# obtain all the data fields for the NFIP Policies data set
df <- fema_data_fields(data_set = "fimaNfipPolicies")

# Note: the data set field is not case sensative, meaning you do not need to 
# use camel case names despite that being the convention in the FEMA documentation.
df <- fema_data_fields(data_set = "fimanfippolicies")

# view the data fields 
df
#> # A tibble: 46 × 15
#>    datasetId   openFemaDataSet name  title description type  sortOrder datasetVersion hash  lastRefresh
#>    <chr>       <chr>           <chr> <chr> <chr>       <chr> <chr>     <chr>          <chr> <chr>      
#>  1 openfema-32 FimaNfipPolici… 1     agri… Agricultur… Yes … boolean   1              FALSE FALSE      
#>  2 openfema-32 FimaNfipPolici… 1     base… Base Flood… Base… number    2              TRUE  FALSE      
#>  3 openfema-32 FimaNfipPolici… 1     base… Basement E… Base… number    3              TRUE  FALSE      
#>  4 openfema-32 FimaNfipPolici… 1     canc… Cancellati… The … date      4              TRUE  FALSE      
#>  5 openfema-32 FimaNfipPolici… 1     cond… Condominiu… This… string    6              TRUE  FALSE      
#>  6 openfema-32 FimaNfipPolici… 1     cens… Census Tra… US C… string    5              TRUE  FALSE      
#>  7 openfema-32 FimaNfipPolici… 1     coun… County Code FIPS… string    8              TRUE  FALSE      
#>  8 openfema-32 FimaNfipPolici… 1     crsC… CRS Classi… The … number    9              TRUE  FALSE      
#>  9 openfema-32 FimaNfipPolici… 1     cons… Constructi… Is t… boolean   7              FALSE FALSE      
#> 10 openfema-32 FimaNfipPolici… 1     dedu… Deductible… The … number    10             TRUE  FALSE      
#> # … with 36 more rows, and 5 more variables: isNestedObject <chr>, isNullable <chr>,
#> #   isSearchable <chr>, primaryKey <chr>, id <chr>
```
…
If we wanted to limit the columns returned we could do so by passing a character vector of data fields to be included in the returned data frame. The data fields for a given data set can be retrieved using the `fema_data_fields()` function.


```r
data_fields <- fema_data_fields("fimanfipclaims")

data_fields
#> # A tibble: 40 × 15
#>    datasetId   openFemaDataSet name  title description type  sortOrder datasetVersion hash  lastRefresh
#>    <chr>       <chr>           <chr> <chr> <chr>       <chr> <chr>     <chr>          <chr> <chr>      
#>  1 openfema-31 FimaNfipClaims  1     "agr… "Agricultu… Yes … boolean   1              FALSE FALSE      
#>  2 openfema-31 FimaNfipClaims  1     "asO… "As Of Dat… The … date      2              TRUE  FALSE      
#>  3 openfema-31 FimaNfipClaims  1     "bas… "Base Floo… Base… number    3              TRUE  FALSE      
#>  4 openfema-31 FimaNfipClaims  1     "bas… "Basement … Base… number    4              TRUE  FALSE      
#>  5 openfema-31 FimaNfipClaims  1     "rep… "Reported … This… string    5              TRUE  FALSE      
#>  6 openfema-31 FimaNfipClaims  1     "con… "Condomini… This… string    6              TRUE  FALSE      
#>  7 openfema-31 FimaNfipClaims  1     "pol… "Policy Co… Insu… number    7              TRUE  FALSE      
#>  8 openfema-31 FimaNfipClaims  1     "cou… "County Co… FIPS… string    8              TRUE  FALSE      
#>  9 openfema-31 FimaNfipClaims  1     "com… "Community… The … number    9              TRUE  FALSE      
#> 10 openfema-31 FimaNfipClaims  1     "dat… "Date Of L… Date… date      10             TRUE  FALSE      
#> # … with 30 more rows, and 5 more variables: isNestedObject <chr>, isNullable <chr>,
#> #   isSearchable <chr>, primaryKey <chr>, id <chr>
```
…
If we want to limit the rows returned rather than the columns, we can also apply filters by specifying values of the columns to return. If we want to quickly see the set of variables that can be used to filter API queries with, we can use the valid_parameters() function to return a tibble containing the variables that are "searchable" for a particular data set. 

```r
params <- valid_parameters(data_set = "fimaNfipClaims")

params
#> # A tibble: 40 × 1
#>    title                          
#>    <chr>                          
#>  1 agricultureStructureIndicator  
#>  2 asOfDate                       
#>  3 baseFloodElevation             
#>  4 basementEnclosureCrawlspaceType
#>  5 reportedCity                   
#>  6 condominiumIndicator           
#>  7 policyCount                    
#>  8 countyCode                     
#>  9 communityRatingSystemDiscount  
#> 10 dateOfLoss                     
#> # … with 30 more rows
```
…
# construct a list containing filters for Hurricane and Florida
filter_list <- c(incidentType = c("Hurricane"),
                 state = c("Florida")) 

# pass filter_list to the open_fema function to retreieve data.
df <- open_fema(data_set = "HazardMitigationGrants", filters = filter_list, 
               ask_before_call = FALSE)
#> Obtaining Data: 1 out of 2 iterations (50% complete)
#> Obtaining Data: 2 out of 2 iterations (100% complete)


df
#> # A tibble: 1,671 × 19
#>    region state disasterNumber declarationDate     incidentType disasterTitle projectNumber projectType
#>    <chr>  <chr> <chr>          <dttm>              <chr>        <chr>         <chr>         <chr>      
#>  1 4      Flor… 955            1992-08-24 00:00:00 Hurricane    HURRICANE AN… 0004          401.1: Wat…
#>  2 4      Flor… 955            1992-08-24 00:00:00 Hurricane    HURRICANE AN… 0002          205.8: Ret…
#>  3 4      Flor… 955            1992-08-24 00:00:00 Hurricane    HURRICANE AN… 0003          501.1: Oth…
#>  4 4      Flor… 955            1992-08-24 00:00:00 Hurricane    HURRICANE AN… 0001          602.1: Oth…
#>  5 4      Flor… 955            1992-08-24 00:00:00 Hurricane    HURRICANE AN… 0019          205.8: Ret…
#>  6 4      Flor… 955            1992-08-24 00:00:00 Hurricane    HURRICANE AN… 0014          601.1: Gen…
#>  7 4      Flor… 955            1992-08-24 00:00:00 Hurricane    HURRICANE AN… 0018          205.8: Ret…
#>  8 4      Flor… 955            1992-08-24 00:00:00 Hurricane    HURRICANE AN… 0049          601.1: Gen…
#>  9 4      Flor… 955            1992-08-24 00:00:00 Hurricane    HURRICANE AN… 0029          205.8: Ret…
#> 10 4      Flor… 955            1992-08-24 00:00:00 Hurricane    HURRICANE AN… 0023          602.1: Oth…
#> # … with 1,661 more rows, and 11 more variables: projectTitle <chr>, projectDescription <chr>,
#> #   projectCounties <chr>, status <chr>, subgrantee <chr>, subgranteeFIPSCode <chr>,
#> #   projectAmount <chr>, costSharePercentage <chr>, hash <chr>, lastRefresh <chr>, id <chr>
```
…
See which columns we can filter on to select just Hurricane Irma related grants

```r
# see which parameter can be used for filtering the Housing Assistance for Renters 
valid_parameters("HousingAssistanceRenters") 
#> # A tibble: 44 × 1
#>    params                    
#>    <chr>                     
#>  1 city                      
#>  2 validRegistrations        
#>  3 disasterNumber            
#>  4 zipCode                   
#>  5 repairReplaceAmount       
#>  6 totalInspected            
#>  7 approvedForFemaAssistance 
#>  8 totalWithSubstantialDamage
#>  9 rentalAmount              
#> 10 otherNeedsAmount          
#> # … with 34 more rows
```

All we have in this data set is the `disasterNumber`. Thus, to filter on a specific disaster we have to load the `FemaWebDisasterDeclarations` data find the disaster number associated with the event we are interested in.

```r
# call the disaster declarations
dd <- rfema::open_fema(data_set = "FemaWebDisasterDeclarations", ask_before_call = F)
#> Obtaining Data: 1 out of 5 iterations (20% complete) Obtaining Data: 2 out of 5 iterations (40%
#> complete) Obtaining Data: 3 out of 5 iterations (60% complete) Obtaining Data: 4 out of 5 iterations
#> (80% complete) Obtaining Data: 5 out of 5 iterations (100% complete)

# filter disaster declarations to those with "hurricane" in the name
hurricanes <- distinct(dd %>% filter(grepl("hurricane",tolower(disasterName))) %>% select(disasterName, disasterNumber))
hurricanes
#> # A tibble: 381 × 2
#>    disasterName                               disasterNumber
#>    <chr>                                      <chr>         
#>  1 HURRICANE MARIA                            3390          
#>  2 HURRICANE IRMA                             3388          
#>  3 HURRICANE NATE                             3395          
#>  4 HURRICANE HARVEY                           4332          
#>  5 HURRICANE IRMA                             3384          
#>  6 HURRICANE IRMA - SEMINOLE TRIBE OF FLORIDA 4341          
#>  7 HURRICANE NATE                             3394          
#>  8 HURRICANE IRMA                             4336          
#>  9 HURRICANE NATE                             4349          
#> 10 HURRICANE IRMA                             3385          
#> # … with 371 more rows
```
…
# make the API call to get individual assistance grants awarded to renters for hurricane Irma damages.
assistance_irma <- open_fema(data_set = "HousingAssistanceRenters", filters = filter_list, ask_before_call = F)
#> Obtaining Data: 1 out of 6 iterations (16.67% complete) Obtaining Data: 2 out of 6 iterations (33.33%
#> complete) Obtaining Data: 3 out of 6 iterations (50% complete) Obtaining Data: 4 out of 6 iterations
#> (66.67% complete) Obtaining Data: 5 out of 6 iterations (83.33% complete) Obtaining Data: 6 out of 6
#> iterations (100% complete)
```

Check out the returned data

```r
# check out the returned data
assistance_irma
#> # A tibble: 5,353 × 21
#>    state validRegistrations totalInspected totalInspectedWithNoDamage totalWithModera… totalWithMajorD…
#>    <chr> <chr>              <chr>          <chr>                      <chr>            <chr>           
#>  1 VI    1                  1              1                          0                0               
#>  2 VI    6                  4              4                          2                0               
#>  3 VI    1                  1              0                          1                0               
#>  4 VI    267                203            186                        63               18              
#>  5 VI    4                  4              2                          1                0               
#>  6 VI    1                  0              1                          0                0               
#>  7 VI    1                  1              1                          0                0               
#>  8 VI    1                  1              1                          0                0               
#>  9 VI    1                  0              1                          0                0               
#> 10 VI    1                  1              1                          0                0               
#> # … with 5,343 more rows, and 15 more variables: totalWithSubstantialDamage <chr>,
#> #   approvedForFemaAssistance <chr>, totalApprovedIhpAmount <chr>, repairReplaceAmount <chr>,
#> #   rentalAmount <chr>, otherNeedsAmount <chr>, approvedBetween1And10000 <chr>,
#> #   approvedBetween10001And25000 <chr>, approvedBetween25001AndMax <chr>, totalMaxGrants <chr>,
#> #   disasterNumber <chr>, zipCode <chr>, county <chr>, city <chr>, id <chr>
```
…
