rfema: Getting Started
…
Installation

Right now, the best way to install and use the rfema package is by installing directly from GitHub using remotes::install_github("dylan-turner25/rfema"). The FEMA API does not require and API key, meaning no further setup steps need be taken to start using the package

Avaliable Datasets

For those unfamiliar with the data sets available through the FEMA API, a good starting place is to visit the FEMA API documentation page. However, if you are already familiar with the data and want to quickly reference the data set names or another piece of meta data, using the fema_data_sets() function to obtain a tibble of available data sets along with associated meta data is a convenient option.

# store the avaliable data sets as an object in your R environment that can be referenced later
data_sets <- fema_data_sets() 

# view data 
data_sets
#> # A tibble: 37 × 64
#>    identifier name  title description distribution.ac… distribution.fo… distribution.da… distribution.ac… distribution.fo… distribution.da… distribution.ac…
#>    <chr>      <chr> <chr> <chr>       <chr>            <chr>            <chr>            <chr>            <chr>            <chr>            <chr>           
#>  1 openfema-1 Publ… Publ… FEMA provi… https://www.fem… csv              small (10MB - 5… https://www.fem… json             medium (50MB - … https://www.fem…
#>  2 openfema-1 Publ… Publ… FEMA provi… https://www.fem… csv              small (10MB - 5… https://www.fem… json             medium (50MB - … https://www.fem…
#>  3 openfema-… Fema… FEMA… This data … https://www.fem… csv              medium (50MB - … https://www.fem… json             medium (50MB - … https://www.fem…
#>  4 openfema-… Haza… Haza… This datas… https://www.fem… csv              small (10MB - 5… https://www.fem… json             small (10MB - 5… https://www.fem…
#>  5 openfema-… Fema… FEMA… Provides t… https://www.fem… csv              tiny (< 10 MB)   https://www.fem… json             tiny (< 10 MB)   https://www.fem…
#>  6 openfema-… Emer… Emer… This datas… https://www.fem… csv              tiny (< 10MB)    https://www.fem… json             tiny (< 10MB)    https://www.fem…
#>  7 openfema-… Haza… Haza… The datase… https://www.fem… csv              small (10MB - 5… https://www.fem… json             small (10MB - 5… https://www.fem…
#>  8 openfema-… Hous… Hous… This datas… https://www.fem… csv              small (10MB - 5… https://www.fem… json             medium (50MB - … https://www.fem…
#>  9 openfema-8 Data… Open… Metadata f… https://www.fem… csv              tiny (< 10MB)    https://www.fem… json             tiny (< 10MB)    https://www.fem…
#> 10 openfema-… Haza… Haza… This datas… https://www.fem… csv              small (10MB - 5… https://www.fem… json             medium (50MB - … https://www.fem…
#> # … with 27 more rows, and 53 more variables: distribution.format.2 <chr>, distribution.datasetSize.2 <chr>, webService <chr>, dataDictionary <chr>,
#> #   keyword <chr>, modified <chr>, publisher <chr>, contactPoint <chr>, mbox <chr>, accessLevel <chr>, landingPage <chr>, temporal <chr>, api <chr>,
#> #   version <chr>, bureauCode <chr>, programCode <chr>, accessLevelComment <chr>, license <chr>, spatial <chr>, theme <chr>, dataQuality <chr>,
#> #   accrualPeriodicity <chr>, language <chr>, primaryITInvestmentUII <chr>, issued <chr>, systemOfRecords <chr>, deprecated <chr>, hash <chr>,
#> #   lastRefresh <chr>, recordCount <chr>, depApiMessage <chr>, depNewURL <chr>, depWebMessage <chr>, lastDataSetRefresh <chr>, id <chr>, accessUrl <chr>,
#> #   format <chr>, depDate <chr>, keyword1 <chr>, keyword2 <chr>, keyword3 <chr>, keyword4 <chr>, keyword5 <chr>, keyword6 <chr>, keyword7 <chr>,
#> #   keyword8 <chr>, keyword9 <chr>, keyword10 <chr>, keyword11 <chr>, keyword12 <chr>, keyword13 <chr>, keyword14 <chr>, references <chr>

Example Workflow

Once we know what data set we want to access, or perhaps if we want to know more about what data is available in a given data set, we can use the fema_data_fields() function to get a look at the available data fields in a given data set by setting the “data_set” parameter to one of the “name” columns in the data frame returned by the fema_data_sets() function.

# obtain all the data fields for the NFIP Policies data set
df <- fema_data_fields(data_set = "fimaNfipPolicies")

# Note: the data set field is not case sensative, meaning you do not need to 
# use camel case names despite that being the convention in the FEMA documentation.
df <- fema_data_fields(data_set = "fimanfippolicies")

# view the data fields 
df
#> # A tibble: 46 × 15
#>    datasetId   openFemaDataSet  name  title  description type   sortOrder datasetVersion hash  lastRefresh isNestedObject isNullable isSearchable primaryKey
#>    <chr>       <chr>            <chr> <chr>  <chr>       <chr>  <chr>     <chr>          <chr> <chr>       <chr>          <chr>      <chr>        <chr>     
#>  1 openfema-32 FimaNfipPolicies 1     agric… Agricultur… Yes (… boolean   1              FALSE FALSE       FALSE          ""         aecf8b7e731… 2021-09-0…
#>  2 openfema-32 FimaNfipPolicies 1     baseF… Base Flood… Base … number    2              TRUE  FALSE       TRUE           "NULL"     e715e5e9ef7… 2021-11-2…
#>  3 openfema-32 FimaNfipPolicies 1     basem… Basement E… Basem… number    3              TRUE  FALSE       FALSE          ""         7b8e36bb146… 2021-09-0…
#>  4 openfema-32 FimaNfipPolicies 1     cance… Cancellati… The c… date      4              TRUE  FALSE       TRUE           "NULL"     b2ccd296d07… 2021-12-0…
#>  5 openfema-32 FimaNfipPolicies 1     condo… Condominiu… This … string    6              TRUE  FALSE       FALSE          ""         765e99726f1… 2021-09-0…
#>  6 openfema-32 FimaNfipPolicies 1     censu… Census Tra… US Ce… string    5              TRUE  FALSE       FALSE          ""         438bdf12461… 2021-09-0…
#>  7 openfema-32 FimaNfipPolicies 1     count… County Code FIPS … string    8              TRUE  FALSE       FALSE          ""         b720c88f821… 2021-09-0…
#>  8 openfema-32 FimaNfipPolicies 1     crsCl… CRS Classi… The C… number    9              TRUE  FALSE       FALSE          ""         35c68c6288c… 2021-09-0…
#>  9 openfema-32 FimaNfipPolicies 1     const… Constructi… Is th… boolean   7              FALSE FALSE       FALSE          ""         4fc98de7ae5… 2021-09-0…
#> 10 openfema-32 FimaNfipPolicies 1     deduc… Deductible… The t… number    10             TRUE  FALSE       FALSE          "NULL"     5619a57e826… 2021-11-2…
#> # … with 36 more rows, and 1 more variable: id <chr>
…
If we wanted to limit the columns returned we could do so by passing a character vector of data fields to be included in the returned data frame. The data fields for a given data set can be retrieved using the fema_data_fields() function.

data_fields <- fema_data_fields("fimanfipclaims")

data_fields
#> # A tibble: 40 × 15
#>    datasetId   openFemaDataSet name  title  description  type   sortOrder datasetVersion hash  lastRefresh isNestedObject isNullable isSearchable primaryKey
#>    <chr>       <chr>           <chr> <chr>  <chr>        <chr>  <chr>     <chr>          <chr> <chr>       <chr>          <chr>      <chr>        <chr>     
#>  1 openfema-31 FimaNfipClaims  1     "agri… "Agricultur… Yes (… boolean   1              FALSE FALSE       FALSE          NULL       91f8c693c90… 2021-11-2…
#>  2 openfema-31 FimaNfipClaims  1     "asOf… "As Of Date" The e… date      2              TRUE  FALSE       FALSE          NULL       d740807d822… 2021-11-2…
#>  3 openfema-31 FimaNfipClaims  1     "base… "Base Flood… Base … number    3              TRUE  FALSE       FALSE          NULL       ff76dc6c963… 2021-11-2…
#>  4 openfema-31 FimaNfipClaims  1     "base… "Basement E… Basem… number    4              TRUE  FALSE       FALSE          NULL       d9ccf2e5435… 2021-11-2…
#>  5 openfema-31 FimaNfipClaims  1     "repo… "Reported C… This … string    5              TRUE  FALSE       FALSE          NULL       0bdb29845d2… 2021-11-2…
#>  6 openfema-31 FimaNfipClaims  1     "cond… "Condominiu… This … string    6              TRUE  FALSE       FALSE          NULL       c75d682cf55… 2021-11-2…
#>  7 openfema-31 FimaNfipClaims  1     "poli… "Policy Cou… Insur… number    7              TRUE  FALSE       FALSE          NULL       3d2b0cef36b… 2021-11-2…
#>  8 openfema-31 FimaNfipClaims  1     "coun… "County Cod… FIPS … string    8              TRUE  FALSE       TRUE           NULL       f78eca3b993… 2021-11-2…
#>  9 openfema-31 FimaNfipClaims  1     "comm… "Community … The C… number    9              TRUE  FALSE       FALSE          NULL       d560e158499… 2021-11-2…
#> 10 openfema-31 FimaNfipClaims  1     "date… "Date Of Lo… Date … date      10             TRUE  FALSE       FALSE          NULL       4b7fe750c3a… 2021-11-2…
#> # … with 30 more rows, and 1 more variable: id <chr>
…
If we want to limit the rows returned rather than the columns, we can also apply filters by specifying values of the columns to return. If we want to quickly see the set of variables that can be used to filter API queries with, we can use the valid_parameters() function to return a tibble containing the variables that are “searchable” for a particular data set.

params <- valid_parameters(data_set = "fimaNfipClaims")

params
#> # A tibble: 40 × 1
#>    title                          
#>    <chr>                          
#>  1 agricultureStructureIndicator  
#>  2 asOfDate                       
#>  3 baseFloodElevation             
#>  4 basementEnclosureCrawlspaceType
#>  5 reportedCity                   
#>  6 condominiumIndicator           
#>  7 policyCount                    
#>  8 countyCode                     
#>  9 communityRatingSystemDiscount  
#> 10 dateOfLoss                     
#> # … with 30 more rows
…
# construct a list containing filters for Hurricane and Florida
filter_list <- c(incidentType = c("Hurricane"),
                 state = c("Florida")) 

# pass filter_list to the open_fema function to retreieve data.
df <- open_fema(data_set = "HazardMitigationGrants", filters = filter_list, 
               ask_before_call = FALSE)
#> Obtaining Data: 1 out of 2 iterations (50% complete)
#> Obtaining Data: 2 out of 2 iterations (100% complete)

df
#> # A tibble: 1,671 × 19
#>    region state disasterNumber declarationDate     incidentType disasterTitle projectNumber projectType projectTitle projectDescript… projectCounties status
#>    <chr>  <chr> <chr>          <dttm>              <chr>        <chr>         <chr>         <chr>       <chr>        <chr>            <chr>           <chr> 
#>  1 4      Flor… 955            1992-08-24 00:00:00 Hurricane    HURRICANE AN… 0004          401.1: Wat… GIS UTILITY… "Load all water… "BROWARD"       Not A…
#>  2 4      Flor… 955            1992-08-24 00:00:00 Hurricane    HURRICANE AN… 0002          205.8: Ret… WIND RETROF… "Protect buildi… "BROWARD"       Closed
#>  3 4      Flor… 955            1992-08-24 00:00:00 Hurricane    HURRICANE AN… 0003          501.1: Oth… REPLACE TRA… "Replace span w… "BROWARD "      Withd…
#>  4 4      Flor… 955            1992-08-24 00:00:00 Hurricane    HURRICANE AN… 0001          602.1: Oth… RECOVERY MA… "Proposed syste… "STATEWIDE"     Closed
#>  5 4      Flor… 955            1992-08-24 00:00:00 Hurricane    HURRICANE AN… 0019          205.8: Ret… WIND RETROF… "Install shutte… "BROWARD"       Closed
#>  6 4      Flor… 955            1992-08-24 00:00:00 Hurricane    HURRICANE AN… 0014          601.1: Gen… ELEVATE/REL… "Construct engi… "BROWARD"       Withd…
#>  7 4      Flor… 955            1992-08-24 00:00:00 Hurricane    HURRICANE AN… 0018          205.8: Ret… WIND RETROF… "Install shutte… "BROWARD"       Closed
#>  8 4      Flor… 955            1992-08-24 00:00:00 Hurricane    HURRICANE AN… 0049          601.1: Gen… EMERGENCY G… "Purchase and i… "BROWARD"       Not A…
#>  9 4      Flor… 955            1992-08-24 00:00:00 Hurricane    HURRICANE AN… 0029          205.8: Ret… WIND RETROF… "Install shutte… "BROWARD"       Withd…
#> 10 4      Flor… 955            1992-08-24 00:00:00 Hurricane    HURRICANE AN… 0023          602.1: Oth… COMMUNICATI… "Purchase  VHF … "BROWARD"       Not A…
#> # … with 1,661 more rows, and 7 more variables: subgrantee <chr>, subgranteeFIPSCode <chr>, projectAmount <chr>, costSharePercentage <chr>, hash <chr>,
#> #   lastRefresh <chr>, id <chr>
…
See which columns we can filter on to select just Hurricane Irma related grants

# see which parameter can be used for filtering the Housing Assistance for Renters 
valid_parameters("HousingAssistanceRenters") 
#> # A tibble: 44 × 1
#>    params                    
#>    <chr>                     
#>  1 city                      
#>  2 validRegistrations        
#>  3 disasterNumber            
#>  4 zipCode                   
#>  5 repairReplaceAmount       
#>  6 totalInspected            
#>  7 approvedForFemaAssistance 
#>  8 totalWithSubstantialDamage
#>  9 rentalAmount              
#> 10 otherNeedsAmount          
#> # … with 34 more rows

All we have in this data set is the disasterNumber. Thus, to filter on a specific disaster we have to load the FemaWebDisasterDeclarations data find the disaster number associated with the event we are interested in.

# call the disaster declarations
dd <- rfema::open_fema(data_set = "FemaWebDisasterDeclarations", ask_before_call = F)
#> Obtaining Data: 1 out of 5 iterations (20% complete) Obtaining Data: 2 out of 5 iterations (40% complete) Obtaining Data: 3 out of 5 iterations (60%
#> complete) Obtaining Data: 4 out of 5 iterations (80% complete) Obtaining Data: 5 out of 5 iterations (100% complete)

# filter disaster declarations to those with "hurricane" in the name
hurricanes <- distinct(dd %>% filter(grepl("hurricane",tolower(disasterName))) %>% select(disasterName, disasterNumber))
hurricanes
#> # A tibble: 381 × 2
#>    disasterName                               disasterNumber
#>    <chr>                                      <chr>         
#>  1 HURRICANE MARIA                            3390          
#>  2 HURRICANE IRMA                             3388          
#>  3 HURRICANE NATE                             3395          
#>  4 HURRICANE HARVEY                           4332          
#>  5 HURRICANE IRMA                             3384          
#>  6 HURRICANE IRMA - SEMINOLE TRIBE OF FLORIDA 4341          
#>  7 HURRICANE NATE                             3394          
#>  8 HURRICANE IRMA                             4336          
#>  9 HURRICANE NATE                             4349          
#> 10 HURRICANE IRMA                             3385          
#> # … with 371 more rows
…
# construct filter list
filter_list <- list(disasterNumber = dd_nums_irma)

# make the API call to get individual assistance grants awarded to renters for hurricane Irma damages.
assistance_irma <- open_fema(data_set = "HousingAssistanceRenters", filters = filter_list, ask_before_call = F)
#> Obtaining Data: 1 out of 6 iterations (16.67% complete) Obtaining Data: 2 out of 6 iterations (33.33% complete) Obtaining Data: 3 out of 6 iterations
#> (50% complete) Obtaining Data: 4 out of 6 iterations (66.67% complete) Obtaining Data: 5 out of 6 iterations (83.33% complete) Obtaining Data: 6 out of 6
#> iterations (100% complete)

Check out the returned data

# check out the returned data
assistance_irma
#> # A tibble: 5,353 × 21
#>    state validRegistrations totalInspected totalInspectedWithNoDamage totalWithModerat… totalWithMajorDa… totalWithSubsta… approvedForFema… totalApprovedIh…
#>    <chr> <chr>              <chr>          <chr>                      <chr>             <chr>             <chr>            <chr>            <chr>           
#>  1 VI    1                  0              1                          0                 0                 0                0                0               
#>  2 VI    2                  1              2                          0                 0                 0                1                2401.64         
#>  3 VI    1                  1              0                          1                 0                 0                1                2816            
#>  4 VI    1                  1              0                          1                 0                 0                1                4476.9          
#>  5 VI    4                  4              2                          1                 0                 0                4                6360            
#>  6 VI    1                  1              0                          1                 0                 0                1                2122            
#>  7 VI    1                  0              1                          0                 0                 0                0                0               
#>  8 VI    1                  1              1                          0                 0                 0                1                499.99          
#>  9 VI    3                  2              2                          1                 0                 0                1                2622            
#> 10 VI    1                  1              0                          1                 0                 0                1                3548.62         
#> # … with 5,343 more rows, and 12 more variables: repairReplaceAmount <chr>, rentalAmount <chr>, otherNeedsAmount <chr>, approvedBetween1And10000 <chr>,
#> #   approvedBetween10001And25000 <chr>, approvedBetween25001AndMax <chr>, totalMaxGrants <chr>, disasterNumber <chr>, zipCode <chr>, county <chr>,
#> #   city <chr>, id <chr>
…
