Access the openFEMA API • rfema
…
# remove the html line breaks from returned data frame (if there are any)  
data <- as_tibble(lapply(data, function(data) gsub("\n", "", data)))

# view the retrieved data
data

## # A tibble: 2,119 × 40
##    agricultureStruct… asOfDate  baseFloodElevat… basementEnclosur… reportedCity 
##    <chr>              <chr>     <chr>            <chr>             <chr>        
##  1 FALSE              2021-07-… 8                NULL              Temporarily …
##  2 FALSE              2021-09-… 6                0                 Temporarily …
##  3 FALSE              2021-09-… 4                0                 Temporarily …
##  4 FALSE              2021-09-… 6                0                 Temporarily …
##  5 FALSE              2021-09-… NULL             NULL              Temporarily …
##  6 FALSE              2021-09-… 6                NULL              Temporarily …
##  7 FALSE              2021-07-… NULL             NULL              Temporarily …
##  8 FALSE              2021-07-… 7                NULL              Temporarily …
##  9 FALSE              2021-07-… 7                NULL              Temporarily …
## 10 FALSE              2021-09-… NULL             0                 Temporarily …
## # … with 2,109 more rows, and 35 more variables: condominiumIndicator <chr>,
## #   policyCount <chr>, countyCode <chr>, communityRatingSystemDiscount <chr>,
## #   dateOfLoss <chr>, elevatedBuildingIndicator <chr>,
## #   elevationCertificateIndicator <chr>, elevationDifference <chr>,
## #   censusTract <chr>, floodZone <chr>, houseWorship <chr>, latitude <chr>,
## #   longitude <chr>, locationOfContents <chr>, lowestAdjacentGrade <chr>,
## #   lowestFloorElevation <chr>, numberOfFloorsInTheInsuredBuilding <chr>, …
…
# define a list of filters to apply
filterList <- list(countyCode = "= 12011",yearOfLoss = ">= 2010", yearOfLoss = "<= 2012")

# Make the API call using the `open_fema` function. The function will output a 
# status message to the console letting you monitor the progress of the data retrieval.
data <- rfema::open_fema(data_set = "fimaNfipClaims",ask_before_call = F, filters = filterList)

## Obtaining Data: 1 out of 3 iterations (33.33% complete) Obtaining Data: 2 out
## of 3 iterations (66.67% complete) Obtaining Data: 3 out of 3 iterations (100%
## complete)

# view data
data

## # A tibble: 2,119 × 40
##    agricultureStructur… asOfDate            baseFloodElevati… basementEnclosure…
##    <chr>                <dttm>              <chr>             <chr>             
##  1 FALSE                2021-07-25 00:00:00 8                 NULL              
##  2 FALSE                2021-09-02 00:00:00 6                 0                 
##  3 FALSE                2021-09-02 00:00:00 4                 0                 
##  4 FALSE                2021-09-02 00:00:00 6                 0                 
##  5 FALSE                2021-09-02 00:00:00 NULL              NULL              
##  6 FALSE                2021-09-02 00:00:00 6                 NULL              
##  7 FALSE                2021-07-04 00:00:00 NULL              NULL              
##  8 FALSE                2021-07-04 00:00:00 7                 NULL              
##  9 FALSE                2021-07-04 00:00:00 7                 NULL              
## 10 FALSE                2021-09-02 00:00:00 NULL              0                 
## # … with 2,109 more rows, and 36 more variables: reportedCity <chr>,
## #   condominiumIndicator <chr>, policyCount <chr>, countyCode <chr>,
## #   communityRatingSystemDiscount <chr>, dateOfLoss <dttm>,
## #   elevatedBuildingIndicator <chr>, elevationCertificateIndicator <chr>,
## #   elevationDifference <chr>, censusTract <chr>, floodZone <chr>,
## #   houseWorship <chr>, latitude <chr>, longitude <chr>,
## #   locationOfContents <chr>, lowestAdjacentGrade <chr>, …
…
Installation

Right now, the best way to install and use the rfema package is by installing directly from GitHub using remotes::install_github("dylan-turner25/rfema"). The FEMA API does not require an API key, meaning no further steps need be taken to start using the package

Usage

For those unfamiliar with the data sets available through the FEMA API, a good starting place is to visit the FEMA API documentation page. However, if you are already familiar with the data and want to quickly reference the data set names or another piece of meta data, using the fema_data_sets() function to obtain a tibble of available data sets along with associated meta data is a convenient option.

# store meta data for the available data sets as an object in the R environment
data_sets <- fema_data_sets()

# view the just retrieved data
data_sets

## # A tibble: 37 × 64
##    identifier  name    title   description   distribution.acce… distribution.fo…
##    <chr>       <chr>   <chr>   <chr>         <chr>              <chr>           
##  1 openfema-1  Public… Public… FEMA provide… https://www.fema.… csv             
##  2 openfema-1  Public… Public… FEMA provide… https://www.fema.… csv             
##  3 openfema-26 FemaWe… FEMA W… This data se… https://www.fema.… csv             
##  4 openfema-28 Hazard… Hazard… This dataset… https://www.fema.… csv             
##  5 openfema-36 FemaRe… FEMA R… Provides the… https://www.fema.… csv             
##  6 openfema-22 Emerge… Emerge… This dataset… https://www.fema.… csv             
##  7 openfema-45 Hazard… Hazard… The dataset … https://www.fema.… csv             
##  8 openfema-12 Housin… Housin… This dataset… https://www.fema.… csv             
##  9 openfema-8  DataSe… OpenFE… Metadata for… https://www.fema.… csv             
## 10 openfema-37 Hazard… Hazard… This dataset… https://www.fema.… csv             
## # … with 27 more rows, and 58 more variables: distribution.datasetSize <chr>,
## #   distribution.accessURL.1 <chr>, distribution.format.1 <chr>,
## #   distribution.datasetSize.1 <chr>, distribution.accessURL.2 <chr>,
## #   distribution.format.2 <chr>, distribution.datasetSize.2 <chr>,
## #   webService <chr>, dataDictionary <chr>, keyword <chr>, modified <chr>,
## #   publisher <chr>, contactPoint <chr>, mbox <chr>, accessLevel <chr>,
## #   landingPage <chr>, temporal <chr>, api <chr>, version <chr>, …
…
